2.sequential/upcnt/upcnt.vcd
$date
	Thu Jun 27 19:43:19 2024
$end
$version
	Icarus Verilog
$end
$timescale
	1s
$end
$scope module upcnt_tb $end
$var wire 4 ! o_cnt [3:0] $end
$var reg 1 " i_clk $end
$var reg 1 # i_rstn $end
$var reg 128 $ taskstate [127:0] $end
$var reg 256 % vcd_file [255:0] $end
$var integer 32 & err [31:0] $end
$var integer 32 ' i [31:0] $end
$scope module u_upcnt $end
$var wire 1 " i_clk $end
$var wire 1 # i_rstn $end
$var reg 4 ( o_cnt [3:0] $end
$upscope $end
$scope task init $end
$upscope $end
$scope task resetNCycle $end
$var reg 10 ) i [9:0] $end
$upscope $end
$upscope $end
$enddefinitions $end
#0
$dumpvars
b100 )
b0 (
bx '
b0 &
b11101010111000001100011011011100111010000101110011101100110001101100100 %
b101001001100101011100110110010101110100 $
0#
0"
b0 !
$end
#5
1"
#10
0"
#15
1"
#20
0"
#25
1"
#30
0"
#35
1"
#40
0"
b0 '
b0 $
1#
#45
b1 !
b1 (
1"
#50
0"
b1 '
#55
b10 !
b10 (
1"
#60
0"
b10 '
#65
b11 !
b11 (
1"
#70
0"
b11 '
#75
b100 !
b100 (
1"
#80
0"
b100 '
#85
b101 !
b101 (
1"
#90
0"
b101 '
#95
b110 !
b110 (
1"
#100
0"
b110 '
#105
b111 !
b111 (
1"
#110
0"
b111 '
#115
b1000 !
b1000 (
1"
#120
0"
b1000 '
#125
b1001 !
b1001 (
1"
#130
0"
b1001 '
#135
b1010 !
b1010 (
1"
#140
0"
b1010 '
#145
b1011 !
b1011 (
1"
#150
0"
b1011 '
#155
b1100 !
b1100 (
1"
#160
0"
b1100 '
#165
b1101 !
b1101 (
1"
#170
0"
b1101 '
#175
b1110 !
b1110 (
1"
#180
0"
b1110 '
#185
b1111 !
b1111 (
1"
#190
0"
b1111 '
#195
b0 !
b0 (
1"
#200
0"
b10000 '
#205
b1 !
b1 (
1"
#210
0"
b10001 '
#215
b10 !
b10 (
1"
#220
0"
b10010 '
#225
b11 !
b11 (
1"
#230
0"
b10011 '
#235
b100 !
b100 (
1"
#240
0"
b10100 '
#245
b101 !
b101 (
1"
#250
0"
b10101 '
#255
b110 !
b110 (
1"
#260
0"
b10110 '
#265
b111 !
b111 (
1"
#270
0"
b10111 '
#275
b1000 !
b1000 (
1"
#280
0"
b11000 '
#285
b1001 !
b1001 (
1"
#290
0"
b11001 '
#295
b1010 !
b1010 (
1"
#300
0"
b11010 '
#305
b1011 !
b1011 (
1"
#310
0"
b11011 '
#315
b1100 !
b1100 (
1"
#320
0"
b11100 '
#325
b1101 !
b1101 (
1"
#330
0"
b11101 '
#335
b1110 !
b1110 (
1"
#340
0"
b11110 '
#345
b1111 !
b1111 (
1"
#350
0"
b11111 '
#355
b0 !
b0 (
1"
#360
0"
b100000 '
#365
b1 !
b1 (
1"
#370
0"
b100001 '
#375
b10 !
b10 (
1"
#380
0"
b100010 '
#385
b11 !
b11 (
1"
#390
0"
b100011 '
#395
b100 !
b100 (
1"
#400
0"
b100100 '
#405
b101 !
b101 (
1"
#410
0"
b100101 '
#415
b110 !
b110 (
1"
#420
0"
b100110 '
#425
b111 !
b111 (
1"
#430
0"
b100111 '
#435
b1000 !
b1000 (
1"
#440
0"
b101000 '
#445
b1001 !
b1001 (
1"
#450
0"
b101001 '
#455
b1010 !
b1010 (
1"
#460
0"
b101010 '
#465
b1011 !
b1011 (
1"
#470
0"
b101011 '
#475
b1100 !
b1100 (
1"
#480
0"
b101100 '
#485
b1101 !
b1101 (
1"
#490
0"
b101101 '
#495
b1110 !
b1110 (
1"
#500
0"
b101110 '
#505
b1111 !
b1111 (
1"
#510
0"
b101111 '
#515
b0 !
b0 (
1"
#520
0"
b110000 '
#525
b1 !
b1 (
1"
#530
0"
b110001 '
#535
b10 !
b10 (
1"
#540
0"
b110010 '
#545
b11 !
b11 (
1"
